Feature Engineering-03.25.2025
…
Rows: 254770 Columns: 19
── Column specification ────────────────────────────────────────────────────────
Delimiter: ","
chr  (2): site, site_2
dbl (17): year, lat, lon, strength_gtex, tile, latitude, longitude, altitude...

ℹ Use `spec()` to retrieve the full column specification for this data.
ℹ Specify the column types or set `show_col_types = FALSE` to quiet this message.

Code

v_fieldweather

# A tibble: 254,770 × 19
    year site        lat   lon strength_gtex site_2     tile latitude longitude
   <dbl> <chr>     <dbl> <dbl>         <dbl> <chr>     <dbl>    <dbl>     <dbl>
 1  1980 Altus, OK  34.6 -99.3          25.3 Altus, OK 11201     34.6     -99.3
 2  1980 Altus, OK  34.6 -99.3          25.3 Altus, OK 11201     34.6     -99.3
 3  1980 Altus, OK  34.6 -99.3          25.3 Altus, OK 11201     34.6     -99.3
 4  1980 Altus, OK  34.6 -99.3          25.3 Altus, OK 11201     34.6     -99.3
 5  1980 Altus, OK  34.6 -99.3          25.3 Altus, OK 11201     34.6     -99.3
 6  1980 Altus, OK  34.6 -99.3          25.3 Altus, OK 11201     34.6     -99.3
 7  1980 Altus, OK  34.6 -99.3          25.3 Altus, OK 11201     34.6     -99.3
 8  1980 Altus, OK  34.6 -99.3          25.3 Altus, OK 11201     34.6     -99.3
 9  1980 Altus, OK  34.6 -99.3          25.3 Altus, OK 11201     34.6     -99.3
10  1980 Altus, OK  34.6 -99.3          25.3 Altus, OK 11201     34.6     -99.3
# ℹ 254,760 more rows
# ℹ 10 more variables: altitude <dbl>, year_2 <dbl>, yday <dbl>, dayl_s <dbl>,
#   prcp_mm_day <dbl>, srad_w_m_2 <dbl>, swe_kg_m_2 <dbl>, tmax_deg_c <dbl>,
#   tmin_deg_c <dbl>, vp_pa <dbl>

Our data set contains 254,770 rows comprised by 698 site-years and 365 days/site-year worth of weather data.

Code

fieldweather <- clean_names(v_fieldweather)
fieldweather

# A tibble: 254,770 × 19
    year site        lat   lon strength_gtex site_2     tile latitude longitude
   <dbl> <chr>     <dbl> <dbl>         <dbl> <chr>     <dbl>    <dbl>     <dbl>
 1  1980 Altus, OK  34.6 -99.3          25.3 Altus, OK 11201     34.6     -99.3
 2  1980 Altus, OK  34.6 -99.3          25.3 Altus, OK 11201     34.6     -99.3
 3  1980 Altus, OK  34.6 -99.3          25.3 Altus, OK 11201     34.6     -99.3
 4  1980 Altus, OK  34.6 -99.3          25.3 Altus, OK 11201     34.6     -99.3
 5  1980 Altus, OK  34.6 -99.3          25.3 Altus, OK 11201     34.6     -99.3
 6  1980 Altus, OK  34.6 -99.3          25.3 Altus, OK 11201     34.6     -99.3
 7  1980 Altus, OK  34.6 -99.3          25.3 Altus, OK 11201     34.6     -99.3
 8  1980 Altus, OK  34.6 -99.3          25.3 Altus, OK 11201     34.6     -99.3
 9  1980 Altus, OK  34.6 -99.3          25.3 Altus, OK 11201     34.6     -99.3
10  1980 Altus, OK  34.6 -99.3          25.3 Altus, OK 11201     34.6     -99.3
# ℹ 254,760 more rows
# ℹ 10 more variables: altitude <dbl>, year_2 <dbl>, yday <dbl>, dayl_s <dbl>,
#   prcp_mm_day <dbl>, srad_w_m_2 <dbl>, swe_kg_m_2 <dbl>, tmax_deg_c <dbl>,
#   tmin_deg_c <dbl>, vp_pa <dbl>
…
5 Feature engineering

Let’s take another look at the data at hand:

Code

fieldweather

# A tibble: 254,770 × 19
    year site        lat   lon strength_gtex site_2     tile latitude longitude
   <dbl> <chr>     <dbl> <dbl>         <dbl> <chr>     <dbl>    <dbl>     <dbl>
 1  1980 Altus, OK  34.6 -99.3          25.3 Altus, OK 11201     34.6     -99.3
 2  1980 Altus, OK  34.6 -99.3          25.3 Altus, OK 11201     34.6     -99.3
 3  1980 Altus, OK  34.6 -99.3          25.3 Altus, OK 11201     34.6     -99.3
 4  1980 Altus, OK  34.6 -99.3          25.3 Altus, OK 11201     34.6     -99.3
 5  1980 Altus, OK  34.6 -99.3          25.3 Altus, OK 11201     34.6     -99.3
 6  1980 Altus, OK  34.6 -99.3          25.3 Altus, OK 11201     34.6     -99.3
 7  1980 Altus, OK  34.6 -99.3          25.3 Altus, OK 11201     34.6     -99.3
 8  1980 Altus, OK  34.6 -99.3          25.3 Altus, OK 11201     34.6     -99.3
 9  1980 Altus, OK  34.6 -99.3          25.3 Altus, OK 11201     34.6     -99.3
10  1980 Altus, OK  34.6 -99.3          25.3 Altus, OK 11201     34.6     -99.3
# ℹ 254,760 more rows
# ℹ 10 more variables: altitude <dbl>, year_2 <dbl>, yday <dbl>, dayl_s <dbl>,
#   prcp_mm_day <dbl>, srad_w_m_2 <dbl>, swe_kg_m_2 <dbl>, tmax_deg_c <dbl>,
#   tmin_deg_c <dbl>, vp_pa <dbl>
…
  # Extracting month from date  
mutate(month = month(date)) %>%
  mutate(month_abb = month(date, label = T))

fe_month

# A tibble: 254,770 × 16
    year site       lat   lon strength_gtex  yday dayl.s prcp.mm srad.wm2 tmax.c
   <dbl> <chr>    <dbl> <dbl>         <dbl> <dbl>  <dbl>   <dbl>    <dbl>  <dbl>
 1  1980 Altus, …  34.6 -99.3          25.3     1 35013.       0     313.  13.4 
 2  1980 Altus, …  34.6 -99.3          25.3     2 35046.       0     244.  11.3 
 3  1980 Altus, …  34.6 -99.3          25.3     3 35082.       0     188.   5.86
 4  1980 Altus, …  34.6 -99.3          25.3     4 35120.       0     103.   2.13
 5  1980 Altus, …  34.6 -99.3          25.3     5 35162.       0     173.   4.67
 6  1980 Altus, …  34.6 -99.3          25.3     6 35205.       0     322.  17.7 
 7  1980 Altus, …  34.6 -99.3          25.3     7 35252.       0     235.   4.07
 8  1980 Altus, …  34.6 -99.3          25.3     8 35301.       0     280.   6.93
 9  1980 Altus, …  34.6 -99.3          25.3     9 35353.       0     293.   9.88
10  1980 Altus, …  34.6 -99.3          25.3    10 35407.       0     329.  20.2 
# ℹ 254,760 more rows
# ℹ 6 more variables: tmin.c <dbl>, vp.pa <dbl>, data_chr <chr>, date <date>,
#   month <dbl>, month_abb <ord>
…
`summarise()` has grouped output by 'year', 'site', 'month_abb'. You can
override using the `.groups` argument.

Code

fe_month_sum

# A tibble: 8,376 × 10
    year site      month_abb strength_gtex mean_dayl.s mean_srad.wm2 mean_tmax.c
   <dbl> <chr>     <ord>             <dbl>       <dbl>         <dbl>       <dbl>
 1  1980 Altus, OK Jan                25.3      35873.          242.        10.2
 2  1980 Altus, OK Feb                25.3      38729.          366.        13.8
 3  1980 Altus, OK Mar                25.3      42536.          391.        18.9
 4  1980 Altus, OK Apr                25.3      46521.          450.        24.6
 5  1980 Altus, OK May                25.3      49829.          403.        27.9
 6  1980 Altus, OK Jun                25.3      51429.          427.        36.6
 7  1980 Altus, OK Jul                25.3      50561.          409.        40.5
 8  1980 Altus, OK Aug                25.3      47608.          396.        38.1
 9  1980 Altus, OK Sep                25.3      43732.          381.        32.1
10  1980 Altus, OK Oct                25.3      39757.          378.        26.2
# ℹ 8,366 more rows
# ℹ 3 more variables: mean_tmin.c <dbl>, mean_vp.pa <dbl>, sum_prcp.mm <dbl>
…
Code

fe_month_sum_wide <- fe_month_sum %>%
  pivot_longer(cols = mean_dayl.s:sum_prcp.mm)%>%
  mutate(varname = paste0(name, "_", month_abb)) %>%
  dplyr::select(-name, -month_abb) %>%
  pivot_wider(names_from = varname,
              values_from = value) %>%
  
  # Rounding to one decimal point
mutate(across(3:75, ~round(., 1)))
  
fe_month_sum_wide  

# A tibble: 698 × 75
    year site    strength_gtex mean_dayl.s_Jan mean_srad.wm2_Jan mean_tmax.c_Jan
   <dbl> <chr>           <dbl>           <dbl>             <dbl>           <dbl>
 1  1980 Altus,…          25.3          35873.              242.            10.2
 2  1980 Ames P…          27.2          35743.              215.             9.2
 3  1980 Artesi…          26            36359               279.            13.4
 4  1980 Auburn…          24.8          36420.              240.            13.9
 5  1980 Beevil…          24.5          37494.              277             19.9
 6  1980 Belle …          28.1          35873.              224.             9.7
 7  1980 Bossie…          25.9          36451.              221.            13.2
 8  1980 Chicka…          25.9          35760.              244              9.5
 9  1980 Clarkd…          26.1          35678.              265.             5.8
10  1980 Colleg…          27.1          36941.              254             15.8
# ℹ 688 more rows
# ℹ 69 more variables: mean_tmin.c_Jan <dbl>, mean_vp.pa_Jan <dbl>,
#   sum_prcp.mm_Jan <dbl>, mean_dayl.s_Feb <dbl>, mean_srad.wm2_Feb <dbl>,
#   mean_tmax.c_Feb <dbl>, mean_tmin.c_Feb <dbl>, mean_vp.pa_Feb <dbl>,
#   sum_prcp.mm_Feb <dbl>, mean_dayl.s_Mar <dbl>, mean_srad.wm2_Mar <dbl>,
#   mean_tmax.c_Mar <dbl>, mean_tmin.c_Mar <dbl>, mean_vp.pa_Mar <dbl>,
#   sum_prcp.mm_Mar <dbl>, mean_dayl.s_Apr <dbl>, mean_srad.wm2_Apr <dbl>, …
…
